13/01/22 17:30
Données du projet

                           	Segments	  Mots	Caractères (sans espaces)	Caractères (avec espaces)	Nombre de fichiers	
Total :                    	   25782	137120	                   831329	                   933759	               191	
Restants :                 	   25782	137120	                   831329	                   933759	               191	
Segments uniques :         	    7431	 57564	                   313044	                   358627	               114	
Segments uniques restants :	    7431	 57564	                   313044	                   358627	               114	


Statistiques par fichiers :

Nom du fichier                                                                	Segments entiers	Segments restants	Segments uniques	Segments uniques restants	Mots totaux	Mots restants	Mots uniques	Mots uniques restants	Total des caractères (sans espaces)	Caractères restants (sans espaces)	Caractères uniques (sans espaces)	Caractères uniques restants (sans espaces)	Total des caractères (avec espaces)	Caractères restants (avec espaces)	Caractères uniques (avec espaces)	Caractères uniques restants (avec espaces)	
Beta/languages/PT/scenario/breakthrough_in_training.txt                       	              73	               73	              64	                       64	        363	          363	         347	                  347	                               2491	                              2491	                             2167	                                      2167	                               2735	                              2735	                             2404	                                      2404	
Beta/languages/PT/scenario/China_opening_up.txt                               	              79	               79	              39	                       39	        397	          397	         275	                  275	                               2459	                              2459	                             1536	                                      1536	                               2728	                              2728	                             1748	                                      1748	
Beta/languages/PT/scenario/corporate_leadership.txt                           	             138	              138	              58	                       58	        761	          761	         423	                  423	                               4673	                              4673	                             2276	                                      2276	                               5198	                              5198	                             2590	                                      2590	
Beta/languages/PT/scenario/Dilemma_of_a_Camera_Manufacturer.txt               	              76	               76	              34	                       34	        393	          393	         268	                  268	                               2569	                              2569	                             1558	                                      1558	                               2838	                              2838	                             1767	                                      1767	
Beta/languages/PT/scenario/Family_farm_business.txt                           	              83	               83	              30	                       30	        405	          405	         246	                  246	                               2533	                              2533	                             1355	                                      1355	                               2802	                              2802	                             1548	                                      1548	
Beta/languages/PT/scenario/fashion_venture.txt                                	             108	              108	              44	                       44	        577	          577	         396	                  396	                               3601	                              3601	                             2104	                                      2104	                               4000	                              4000	                             2417	                                      2417	
Beta/languages/PT/scenario/food_and_beverage.txt                              	              86	               86	              24	                       24	        425	          425	         251	                  251	                               2684	                              2684	                             1385	                                      1385	                               2970	                              2970	                             1595	                                      1595	
Beta/languages/PT/scenario/legacy_brand.txt                                   	              87	               87	              31	                       31	        496	          496	         324	                  324	                               3124	                              3124	                             1764	                                      1764	                               3483	                              3483	                             2040	                                      2040	
Beta/languages/PT/scenario/legendary_investor.txt                             	              49	               49	              10	                       10	        250	          250	         126	                  126	                               1589	                              1589	                              675	                                       675	                               1756	                              1756	                              784	                                       784	
Beta/languages/PT/scenario/media_empire.txt                                   	              49	               49	               8	                        8	        215	          215	          82	                   82	                               1379	                              1379	                              414	                                       414	                               1511	                              1511	                              482	                                       482	
Beta/languages/PT/scenario/Multinational_Corporation.txt                      	              98	               98	              35	                       35	        488	          488	         303	                  303	                               3141	                              3141	                             1634	                                      1634	                               3464	                              3464	                             1870	                                      1870	
Beta/languages/PT/scenario/Opportunities_in_Small_Cities.txt                  	              79	               79	              24	                       24	        383	          383	         209	                  209	                               2488	                              2488	                             1187	                                      1187	                               2738	                              2738	                             1352	                                      1352	
Beta/languages/PT/scenario/real_estate_mogul.txt                              	              76	               76	              17	                       17	        377	          377	         193	                  193	                               2476	                              2476	                             1046	                                      1046	                               2731	                              2731	                             1212	                                      1212	
Beta/languages/PT/scenario/tech_leader.txt                                    	              87	               87	              25	                       25	        478	          478	         290	                  290	                               3058	                              3058	                             1573	                                      1573	                               3397	                              3397	                             1819	                                      1819	
Beta/languages/PT/scenario/toys_and_gadgets.txt                               	             105	              105	              29	                       29	        459	          459	         246	                  246	                               3068	                              3068	                             1347	                                      1347	                               3360	                              3360	                             1541	                                      1541	
Beta/languages/PT/scenario_dlc/CityEcoSim/Economic_Revival.txt                	              79	               79	              31	                       31	        413	          413	         270	                  270	                               2625	                              2625	                             1474	                                      1474	                               2904	                              2904	                             1686	                                      1686	
Beta/languages/PT/scenario_dlc/CityEcoSim/Investing_in_Education.txt          	              87	               87	              26	                       26	        443	          443	         192	                  192	                               2795	                              2795	                             1058	                                      1058	                               3093	                              3093	                             1203	                                      1203	
Beta/languages/PT/scenario_dlc/CityEcoSim/Metropolitan_Transformation.txt     	              77	               77	              12	                       12	        364	          364	          98	                   98	                               2387	                              2387	                              562	                                       562	                               2622	                              2622	                              637	                                       637	
Beta/languages/PT/scenario_dlc/CityEcoSim/Towards_a_Better_Quality_of_Life.txt	              80	               80	              15	                       15	        421	          421	         154	                  154	                               2613	                              2613	                              777	                                       777	                               2900	                              2900	                              901	                                       901	
Beta/languages/PT/scenario_dlc/CityEcoSim/Welfare_Vision.txt                  	              91	               91	              25	                       25	        452	          452	         167	                  167	                               2837	                              2837	                              926	                                       926	                               3133	                              3133	                             1044	                                      1044	
Beta/languages/PT/scenario_dlc/DigitalAge/Buying Spree.txt                    	              53	               53	              10	                       10	        269	          269	         133	                  133	                               1655	                              1655	                              669	                                       669	                               1831	                              1831	                              782	                                       782	
Beta/languages/PT/scenario_dlc/DigitalAge/Digital Supremacy.txt               	              60	               60	              16	                       16	        287	          287	         150	                  150	                               1884	                              1884	                              899	                                       899	                               2064	                              2064	                             1017	                                      1017	
Beta/languages/PT/scenario_dlc/DigitalAge/E-commerce Behemoth.txt             	              54	               54	               8	                        8	        258	          258	         117	                  117	                               1690	                              1690	                              682	                                       682	                               1848	                              1848	                              778	                                       778	
Beta/languages/PT/scenario_dlc/DigitalAge/Internet Dominance.txt              	              67	               67	              19	                       19	        331	          331	         185	                  185	                               2058	                              2058	                             1026	                                      1026	                               2269	                              2269	                             1174	                                      1174	
Beta/languages/PT/scenario_dlc/DigitalAge/Software Giant.txt                  	              60	               60	               7	                        7	        281	          281	         110	                  110	                               1883	                              1883	                              637	                                       637	                               2056	                              2056	                              732	                                       732	
Beta/languages/PT/scenario_dlc/Subsidiary/Industry_Dominance.txt              	              57	               57	              15	                       15	        277	          277	         149	                  149	                               1841	                              1841	                              889	                                       889	                               2018	                              2018	                             1007	                                      1007	
Beta/languages/PT/scenario_dlc/Subsidiary/Strategic_Positioning.txt           	              61	               61	              18	                       18	        373	          373	         240	                  240	                               2266	                              2266	                             1281	                                      1281	                               2534	                              2534	                             1488	                                      1488	
Beta/languages/PT/scenario_dlc/Subsidiary/Success_in_IPO.txt                  	              59	               59	              13	                       13	        330	          330	         187	                  187	                               2012	                              2012	                              983	                                       983	                               2240	                              2240	                             1146	                                      1146	
Beta/languages/PT/scenario_dlc/Subsidiary/Supercharging_ROI.txt               	              58	               58	              14	                       14	        324	          324	         189	                  189	                               2108	                              2108	                             1120	                                      1120	                               2331	                              2331	                             1282	                                      1282	
Beta/languages/PT/scenario_dlc/Subsidiary/The_Master_of_Capital.txt           	              60	               60	              15	                       15	        316	          316	         164	                  164	                               2022	                              2022	                              967	                                       967	                               2233	                              2233	                             1101	                                      1101	
Beta/languages/PT/script/autosave every 10 days.txt                           	               6	                6	               4	                        4	         28	           28	          25	                   25	                                253	                               253	                              231	                                       231	                                273	                               273	                              250	                                       250	
Beta/languages/PT/script/autosave every 15 minutes.txt                        	               6	                6	               3	                        3	         34	           34	          31	                   31	                                281	                               281	                              159	                                       159	                                307	                               307	                              184	                                       184	
Beta/languages/PT/script/sample scripts/sample_script_challenge_game.txt      	              11	               11	               7	                        7	         78	           78	          67	                   67	                                446	                               446	                              384	                                       384	                                512	                               512	                              445	                                       445	
Beta/languages/PT/script/sample scripts/sample_script_cities.txt              	              31	               31	              20	                       20	        215	          215	         185	                  185	                               1052	                              1052	                              883	                                       883	                               1222	                              1222	                             1042	                                      1042	
Beta/languages/PT/script/sample scripts/sample_script_competitors.txt         	              51	               51	              37	                       37	        372	          372	         318	                  318	                               2290	                              2290	                             1951	                                      1951	                               2602	                              2602	                             2235	                                      2235	
Beta/languages/PT/script/sample scripts/sample_script_environment.txt         	              50	               50	              39	                       39	        377	          377	         342	                  342	                               1981	                              1981	                             1759	                                      1759	                               2294	                              2294	                             2057	                                      2057	
Beta/languages/PT/script/sample scripts/sample_script_goals.txt               	              55	               55	              35	                       35	        348	          348	         307	                  307	                               2052	                              2052	                             1550	                                      1550	                               2321	                              2321	                             1800	                                      1800	
Beta/languages/PT/script/sample scripts/sample_script_main_goal.txt           	              72	               72	              46	                       46	        469	          469	         409	                  409	                               3026	                              3026	                             2286	                                      2286	                               3408	                              3408	                             2637	                                      2637	
Beta/languages/PT/script/sample scripts/sample_script_player_expertise.txt    	              17	               17	              14	                       14	        133	          133	         101	                  101	                                716	                               716	                              567	                                       567	                                827	                               827	                              648	                                       648	
Beta/languages/PT/script/sample scripts/sample_script_products.txt            	              43	               43	              35	                       35	        317	          317	         297	                  297	                               1783	                              1783	                             1655	                                      1655	                               2041	                              2041	                             1905	                                      1905	
Beta/languages/PT/script/sample scripts/sample_script_special_rules.txt       	              80	               80	              57	                       57	        671	          671	         647	                  647	                               4197	                              4197	                             3456	                                      3456	                               4788	                              4788	                             4031	                                      4031	
Beta/languages/PT/script/senior management salaries 20%.txt                   	               9	                9	               6	                        6	         44	           44	          41	                   41	                                342	                               342	                              220	                                       220	                                373	                               373	                              250	                                       250	
Beta/languages/PT/script/senior management salaries 50%.txt                   	               9	                9	               6	                        6	         44	           44	          41	                   41	                                342	                               342	                              220	                                       220	                                372	                               372	                              249	                                       249	
Beta/languages/PT/script/tech cost 200%.txt                                   	               6	                6	               3	                        3	         25	           25	          22	                   22	                                262	                               262	                              140	                                       140	                                279	                               279	                              156	                                       156	
Beta/languages/PT/script/tech cost 50%.txt                                    	               6	                6	               2	                        2	         25	           25	          18	                   18	                                259	                               259	                              118	                                       118	                                276	                               276	                              132	                                       132	
Beta/languages/PT/script/training effect 200%.txt                             	               7	                7	               3	                        3	         42	           42	          35	                   35	                                335	                               335	                              187	                                       187	                                368	                               368	                              217	                                       217	
Beta/languages/PT/script/unlimited natural resources.txt                      	               6	                6	               3	                        3	         45	           45	          42	                   42	                                358	                               358	                              236	                                       236	                                393	                               393	                              270	                                       270	
Beta/languages/PT/text/guide/EXTERN.txt                                       	               7	                7	               7	                        7	         54	           54	          54	                   54	                                291	                               291	                              291	                                       291	                                338	                               338	                              338	                                       338	
Beta/languages/PT/text/guide/FARMCROP.txt                                     	               9	                9	               9	                        9	         62	           62	          62	                   62	                                311	                               311	                              311	                                       311	                                364	                               364	                              364	                                       364	
Beta/languages/PT/text/guide/FARMLIVE.txt                                     	               3	                3	               3	                        3	         11	           11	          11	                   11	                                 67	                                67	                               67	                                        67	                                 75	                                75	                               75	                                        75	
Beta/languages/PT/text/guide/FARMPROC.txt                                     	              13	               13	              13	                       13	        167	          167	         167	                  167	                                835	                               835	                              835	                                       835	                                987	                               987	                              987	                                       987	
Beta/languages/PT/text/guide/FOREST.txt                                       	              10	               10	              10	                       10	         73	           73	          73	                   73	                                353	                               353	                              353	                                       353	                                416	                               416	                              416	                                       416	
Beta/languages/PT/text/guide/INV.txt                                          	               5	                5	               3	                        3	         25	           25	          21	                   21	                                133	                               133	                              106	                                       106	                                153	                               153	                              124	                                       124	
Beta/languages/PT/text/guide/LABEL.txt                                        	               7	                7	               7	                        7	        121	          121	         121	                  121	                                633	                               633	                              633	                                       633	                                747	                               747	                              747	                                       747	
Beta/languages/PT/text/guide/MFT.txt                                          	              19	               19	              10	                       10	        197	          197	         135	                  135	                                987	                               987	                              692	                                       692	                               1165	                              1165	                              817	                                       817	
Beta/languages/PT/text/guide/MINE.txt                                         	              10	               10	               1	                        1	         73	           73	           2	                    2	                                352	                               352	                               12	                                        12	                                415	                               415	                               13	                                        13	
Beta/languages/PT/text/guide/OIL.txt                                          	              10	               10	               1	                        1	         74	           74	           3	                    3	                                359	                               359	                               19	                                        19	                                423	                               423	                               21	                                        21	
Beta/languages/PT/text/guide/PROJCODE.txt                                     	               5	                5	               5	                        5	         20	           20	          20	                   20	                                106	                               106	                              106	                                       106	                                121	                               121	                              121	                                       121	
Beta/languages/PT/text/guide/PROJECT.txt                                      	              10	               10	               6	                        6	         44	           44	          27	                   27	                                244	                               244	                              162	                                       162	                                278	                               278	                              183	                                       183	
Beta/languages/PT/text/guide/PUR.txt                                          	              19	               19	              13	                       13	        207	          207	         161	                  161	                                955	                               955	                              743	                                       743	                               1142	                              1142	                              890	                                       890	
Beta/languages/PT/text/guide/RADRD.txt                                        	               7	                7	               6	                        6	         31	           31	          29	                   29	                                184	                               184	                              171	                                       171	                                208	                               208	                              194	                                       194	
Beta/languages/PT/text/guide/RD.txt                                           	               7	                7	               1	                        1	         31	           31	           5	                    5	                                184	                               184	                               35	                                        35	                                208	                               208	                               39	                                        39	
Beta/languages/PT/text/guide/SALE.txt                                         	              17	               17	               6	                        6	        180	          180	          55	                   55	                                846	                               846	                              276	                                       276	                               1008	                              1008	                              325	                                       325	
Beta/languages/PT/text/guide/TECH.txt                                         	               7	                7	               6	                        6	         30	           30	          29	                   29	                                184	                               184	                              175	                                       175	                                207	                               207	                              198	                                       198	
Beta/languages/PT/text/guide/TECHCODE.txt                                     	               7	                7	               2	                        2	         28	           28	          10	                   10	                                166	                               166	                               65	                                        65	                                187	                               187	                               73	                                        73	
Beta/languages/PT/text/guide/WAREINV.txt                                      	               5	                5	               3	                        3	         28	           28	          24	                   24	                                150	                               150	                              123	                                       123	                                173	                               173	                              144	                                       144	
Beta/languages/PT/text/guide/WAREPUR.TXT                                      	              16	               16	               4	                        4	        168	          168	          39	                   39	                                780	                               780	                              190	                                       190	                                931	                               931	                              225	                                       225	
Beta/languages/PT/text/guide/WARESALE.txt                                     	              17	               17	               3	                        3	        180	          180	          24	                   24	                                857	                               857	                              126	                                       126	                               1019	                              1019	                              147	                                       147	
Beta/languages/PT/text/tips/Auto_Adjust_Prices.txt                            	               3	                3	               3	                        3	         64	           64	          64	                   64	                                344	                               344	                              344	                                       344	                                405	                               405	                              405	                                       405	
Beta/languages/PT/text/tips/Game_Speed.txt                                    	              10	               10	              10	                       10	        139	          139	         139	                  139	                                701	                               701	                              701	                                       701	                                830	                               830	                              830	                                       830	
Beta/languages/PT/text/tips/List_Box_Browsing_Keys.txt                        	               4	                4	               4	                        4	         83	           83	          83	                   83	                                367	                               367	                              367	                                       367	                                445	                               445	                              445	                                       445	
Beta/languages/PT/text/tips/Tips_List.txt                                     	               3	                3	               3	                        3	         13	           13	          13	                   13	                                117	                               117	                              117	                                       117	                                127	                               127	                              127	                                       127	
Beta/languages/PT/translate/gm_help.txt                                       	             504	              504	             382	                      382	       3228	         3228	        3165	                 3165	                              17091	                             17091	                            16672	                                     16672	                              19934	                             19934	                            19461	                                     19461	
Beta/languages/PT/translate/help.txt                                          	            3901	             3901	            2475	                     2475	      17355	        17355	       15845	                15845	                              91578	                             91578	                            82580	                                     82580	                             106218	                            106218	                            95941	                                     95941	
Beta/languages/PT/translate/t_basic.txt                                       	              16	               16	              16	                       16	         60	           60	          60	                   60	                                338	                               338	                              338	                                       338	                                342	                               342	                              342	                                       342	
Beta/languages/PT/translate/t_game.txt                                        	            2417	             2417	            2390	                     2390	      13710	        13710	       13649	                13649	                              81616	                             81616	                            81262	                                     81262	                              89674	                             89674	                            89272	                                     89272	
Beta/languages/PT/tutorial/script/tutorial 1.txt                              	             106	              106	              50	                       50	        458	          458	         218	                  218	                               3443	                              3443	                             1392	                                      1392	                               3772	                              3772	                             1539	                                      1539	
Beta/languages/PT/tutorial/script/tutorial 2.txt                              	             102	              102	               8	                        8	        443	          443	          61	                   61	                               3347	                              3347	                              328	                                       328	                               3664	                              3664	                              374	                                       374	
Beta/languages/PT/tutorial/script/tutorial 3.txt                              	              96	               96	               7	                        7	        446	          446	          85	                   85	                               3316	                              3316	                              456	                                       456	                               3641	                              3641	                              526	                                       526	
Beta/languages/PT/tutorial/script/tutorial 4.txt                              	              96	               96	               8	                        8	        456	          456	          99	                   99	                               3331	                              3331	                              524	                                       524	                               3667	                              3667	                              608	                                       608	
Beta/languages/PT/tutorial/script/tutorial 5.txt                              	              88	               88	               6	                        6	        427	          427	          88	                   88	                               3089	                              3089	                              436	                                       436	                               3404	                              3404	                              512	                                       512	
Beta/languages/PT/tutorial/script/tutorial 6.txt                              	              89	               89	               7	                        7	        469	          469	         121	                  121	                               3322	                              3322	                              623	                                       623	                               3676	                              3676	                              732	                                       732	
Beta/languages/PT/tutorial/script/tutorial 7.txt                              	              87	               87	               6	                        6	        434	          434	          97	                   97	                               3165	                              3165	                              514	                                       514	                               3486	                              3486	                              599	                                       599	
Beta/languages/PT/tutorial/script/tutorial 8.txt                              	              84	               84	               7	                        7	        455	          455	         123	                  123	                               3279	                              3279	                              645	                                       645	                               3623	                              3623	                              756	                                       756	
Beta/languages/PT/tutorial/tut01.txt                                          	             331	              331	             137	                      137	       1677	         1677	        1392	                 1392	                              11609	                             11609	                             7025	                                      7025	                              12860	                             12860	                             8206	                                      8206	
Beta/languages/PT/tutorial/tut02.txt                                          	             391	              391	             135	                      135	       2193	         2193	        1819	                 1819	                              15350	                             15350	                             9452	                                      9452	                              17050	                             17050	                            11069	                                     11069	
Beta/languages/PT/tutorial/tut03.txt                                          	             307	              307	             112	                      112	       1538	         1538	        1216	                 1216	                              11150	                             11150	                             6420	                                      6420	                              12318	                             12318	                             7465	                                      7465	
Beta/languages/PT/tutorial/tut04.txt                                          	             412	              412	             122	                      122	       2468	         2468	        2000	                 2000	                              17546	                             17546	                            10648	                                     10648	                              19494	                             19494	                            12444	                                     12444	
Beta/languages/PT/tutorial/tut05.txt                                          	             293	              293	              96	                       96	       1893	         1893	        1560	                 1560	                              12275	                             12275	                             7664	                                      7664	                              13792	                             13792	                             9065	                                      9065	
Beta/languages/PT/tutorial/tut06.txt                                          	             128	              128	              34	                       34	        567	          567	         423	                  423	                               4253	                              4253	                             2148	                                      2148	                               4661	                              4661	                             2515	                                      2515	
Beta/languages/PT/tutorial/tut07.txt                                          	             311	              311	              90	                       90	       1658	         1658	        1310	                 1310	                              11948	                             11948	                             6668	                                      6668	                              13222	                             13222	                             7831	                                      7831	
Beta/languages/PT/tutorial/tut08.txt                                          	             141	              141	              37	                       37	        894	          894	         726	                  726	                               6118	                              6118	                             3676	                                      3676	                               6840	                              6840	                             4348	                                      4348	
Release/challenge/CHALE001.txt                                                	               9	                9	               4	                        4	         95	           95	          27	                   27	                                493	                               493	                              135	                                       135	                                570	                               570	                              151	                                       151	
Release/challenge/CHALE002.txt                                                	               6	                6	               1	                        1	         92	           92	           6	                    6	                                505	                               505	                               27	                                        27	                                580	                               580	                               29	                                        29	
Release/font/Notice.html                                                      	              64	               64	              63	                       63	       1465	         1465	        1465	                 1465	                               7991	                              7991	                             7991	                                      7991	                               9380	                              9380	                             9380	                                      9380	
Release/MOD/Readme.txt                                                        	               6	                6	               6	                        6	        123	          123	         123	                  123	                                579	                               579	                              579	                                       579	                                695	                               695	                              695	                                       695	
Release/MOD_kit/How to use MOD Kit.txt                                        	               4	                4	               4	                        4	         64	           64	          64	                   64	                                322	                               322	                              322	                                       322	                                377	                               377	                              377	                                       377	
Release/music/Readme.txt                                                      	              14	               14	              12	                       12	        157	          157	         155	                  155	                                778	                               778	                              774	                                       774	                                913	                               913	                              909	                                       909	
Release/scenario/breakthrough_in_training.txt                                 	              73	               73	               0	                        0	        363	          363	           0	                    0	                               2491	                              2491	                                0	                                         0	                               2735	                              2735	                                0	                                         0	
Release/scenario/China_opening_up.txt                                         	              79	               79	               0	                        0	        397	          397	           0	                    0	                               2459	                              2459	                                0	                                         0	                               2728	                              2728	                                0	                                         0	
Release/scenario/corporate_leadership.txt                                     	             138	              138	               0	                        0	        761	          761	           0	                    0	                               4673	                              4673	                                0	                                         0	                               5198	                              5198	                                0	                                         0	
Release/scenario/Dilemma_of_a_Camera_Manufacturer.txt                         	              76	               76	               2	                        2	        409	          409	         101	                  101	                               2655	                              2655	                              565	                                       565	                               2940	                              2940	                              661	                                       661	
Release/scenario/Family_farm_business.txt                                     	              84	               84	               4	                        4	        409	          409	          87	                   87	                               2544	                              2544	                              456	                                       456	                               2817	                              2817	                              538	                                       538	
Release/scenario/fashion_venture.txt                                          	             110	              110	               3	                        3	        570	          570	          54	                   54	                               3567	                              3567	                              263	                                       263	                               3959	                              3959	                              314	                                       314	
Release/scenario/food_and_beverage.txt                                        	              86	               86	               1	                        1	        425	          425	          44	                   44	                               2682	                              2682	                              234	                                       234	                               2968	                              2968	                              276	                                       276	
Release/scenario/legacy_brand.txt                                             	              87	               87	               0	                        0	        494	          494	           0	                    0	                               3111	                              3111	                                0	                                         0	                               3468	                              3468	                                0	                                         0	
Release/scenario/legendary_investor.txt                                       	              49	               49	               1	                        1	        251	          251	          12	                   12	                               1593	                              1593	                               59	                                        59	                               1761	                              1761	                               70	                                        70	
Release/scenario/media_empire.txt                                             	              49	               49	               0	                        0	        215	          215	           0	                    0	                               1379	                              1379	                                0	                                         0	                               1511	                              1511	                                0	                                         0	
Release/scenario/Multinational_Corporation.txt                                	              98	               98	               0	                        0	        488	          488	           0	                    0	                               3141	                              3141	                                0	                                         0	                               3464	                              3464	                                0	                                         0	
Release/scenario/Opportunities_in_Small_Cities.txt                            	              79	               79	               4	                        4	        396	          396	          90	                   90	                               2535	                              2535	                              490	                                       490	                               2800	                              2800	                              576	                                       576	
Release/scenario/real_estate_mogul.txt                                        	              76	               76	               0	                        0	        377	          377	           0	                    0	                               2476	                              2476	                                0	                                         0	                               2731	                              2731	                                0	                                         0	
Release/scenario/tech_leader.txt                                              	              87	               87	               1	                        1	        478	          478	          35	                   35	                               3054	                              3054	                              162	                                       162	                               3393	                              3393	                              196	                                       196	
Release/scenario/toys_and_gadgets.txt                                         	             105	              105	               0	                        0	        459	          459	           0	                    0	                               3068	                              3068	                                0	                                         0	                               3360	                              3360	                                0	                                         0	
Release/scenario_dlc/CityEcoSim/Economic_Revival.txt                          	              79	               79	               1	                        1	        413	          413	          48	                   48	                               2623	                              2623	                              248	                                       248	                               2902	                              2902	                              294	                                       294	
Release/scenario_dlc/CityEcoSim/Investing_in_Education.txt                    	              88	               88	               0	                        0	        443	          443	           0	                    0	                               2778	                              2778	                                0	                                         0	                               3076	                              3076	                                0	                                         0	
Release/scenario_dlc/CityEcoSim/Metropolitan_Transformation.txt               	              77	               77	               0	                        0	        364	          364	           0	                    0	                               2387	                              2387	                                0	                                         0	                               2622	                              2622	                                0	                                         0	
Release/scenario_dlc/CityEcoSim/Towards_a_Better_Quality_of_Life.txt          	              81	               81	               1	                        1	        419	          419	          19	                   19	                               2611	                              2611	                              107	                                       107	                               2896	                              2896	                              124	                                       124	
Release/scenario_dlc/CityEcoSim/Welfare_Vision.txt                            	              91	               91	               0	                        0	        452	          452	           0	                    0	                               2837	                              2837	                                0	                                         0	                               3133	                              3133	                                0	                                         0	
Release/scenario_dlc/DigitalAge/Buying Spree.txt                              	              53	               53	               0	                        0	        269	          269	           0	                    0	                               1655	                              1655	                                0	                                         0	                               1831	                              1831	                                0	                                         0	
Release/scenario_dlc/DigitalAge/Digital Supremacy.txt                         	              60	               60	               0	                        0	        287	          287	           0	                    0	                               1884	                              1884	                                0	                                         0	                               2064	                              2064	                                0	                                         0	
Release/scenario_dlc/DigitalAge/E-commerce Behemoth.txt                       	              54	               54	               1	                        1	        248	          248	          57	                   57	                               1638	                              1638	                              328	                                       328	                               1786	                              1786	                              380	                                       380	
Release/scenario_dlc/DigitalAge/Internet Dominance.txt                        	              67	               67	               0	                        0	        331	          331	           0	                    0	                               2058	                              2058	                                0	                                         0	                               2269	                              2269	                                0	                                         0	
Release/scenario_dlc/DigitalAge/Software Giant.txt                            	              60	               60	               0	                        0	        281	          281	           0	                    0	                               1883	                              1883	                                0	                                         0	                               2056	                              2056	                                0	                                         0	
Release/scenario_dlc/Subsidiary/Industry_Dominance.txt                        	              57	               57	               1	                        1	        275	          275	          41	                   41	                               1827	                              1827	                              234	                                       234	                               2001	                              2001	                              271	                                       271	
Release/scenario_dlc/Subsidiary/Strategic_Positioning.txt                     	              62	               62	               0	                        0	        373	          373	           0	                    0	                               2264	                              2264	                                0	                                         0	                               2532	                              2532	                                0	                                         0	
Release/scenario_dlc/Subsidiary/Success_in_IPO.txt                            	              59	               59	               3	                        3	        342	          342	          98	                   98	                               2056	                              2056	                              501	                                       501	                               2295	                              2295	                              593	                                       593	
Release/scenario_dlc/Subsidiary/Supercharging_ROI.txt                         	              58	               58	               1	                        1	        326	          326	          63	                   63	                               2097	                              2097	                              349	                                       349	                               2321	                              2321	                              408	                                       408	
Release/scenario_dlc/Subsidiary/The_Master_of_Capital.txt                     	              60	               60	               0	                        0	        316	          316	           0	                    0	                               2022	                              2022	                                0	                                         0	                               2233	                              2233	                                0	                                         0	
Release/script/autosave every 10 days.txt                                     	               6	                6	               0	                        0	         28	           28	           0	                    0	                                253	                               253	                                0	                                         0	                                273	                               273	                                0	                                         0	
Release/script/autosave every 15 minutes.txt                                  	               6	                6	               0	                        0	         34	           34	           0	                    0	                                281	                               281	                                0	                                         0	                                307	                               307	                                0	                                         0	
Release/script/sample scripts/sample_script_challenge_game.txt                	              11	               11	               0	                        0	         78	           78	           0	                    0	                                446	                               446	                                0	                                         0	                                512	                               512	                                0	                                         0	
Release/script/sample scripts/sample_script_cities.txt                        	              31	               31	               0	                        0	        215	          215	           0	                    0	                               1052	                              1052	                                0	                                         0	                               1222	                              1222	                                0	                                         0	
Release/script/sample scripts/sample_script_competitors.txt                   	              51	               51	               0	                        0	        372	          372	           0	                    0	                               2290	                              2290	                                0	                                         0	                               2602	                              2602	                                0	                                         0	
Release/script/sample scripts/sample_script_environment.txt                   	              50	               50	               0	                        0	        377	          377	           0	                    0	                               1981	                              1981	                                0	                                         0	                               2294	                              2294	                                0	                                         0	
Release/script/sample scripts/sample_script_goals.txt                         	              55	               55	               0	                        0	        348	          348	           0	                    0	                               2052	                              2052	                                0	                                         0	                               2321	                              2321	                                0	                                         0	
Release/script/sample scripts/sample_script_main_goal.txt                     	              72	               72	               0	                        0	        469	          469	           0	                    0	                               3026	                              3026	                                0	                                         0	                               3408	                              3408	                                0	                                         0	
Release/script/sample scripts/sample_script_player_expertise.txt              	              17	               17	               0	                        0	        133	          133	           0	                    0	                                716	                               716	                                0	                                         0	                                827	                               827	                                0	                                         0	
Release/script/sample scripts/sample_script_products.txt                      	              43	               43	               0	                        0	        317	          317	           0	                    0	                               1783	                              1783	                                0	                                         0	                               2041	                              2041	                                0	                                         0	
Release/script/sample scripts/sample_script_special_rules.txt                 	              80	               80	               0	                        0	        671	          671	           0	                    0	                               4197	                              4197	                                0	                                         0	                               4788	                              4788	                                0	                                         0	
Release/script/senior management salaries 20%.txt                             	               9	                9	               0	                        0	         44	           44	           0	                    0	                                342	                               342	                                0	                                         0	                                373	                               373	                                0	                                         0	
Release/script/senior management salaries 50%.txt                             	               9	                9	               0	                        0	         44	           44	           0	                    0	                                342	                               342	                                0	                                         0	                                372	                               372	                                0	                                         0	
Release/script/tech cost 200%.txt                                             	               6	                6	               0	                        0	         25	           25	           0	                    0	                                262	                               262	                                0	                                         0	                                279	                               279	                                0	                                         0	
Release/script/tech cost 50%.txt                                              	               6	                6	               0	                        0	         25	           25	           0	                    0	                                259	                               259	                                0	                                         0	                                276	                               276	                                0	                                         0	
Release/script/training effect 200%.txt                                       	               7	                7	               0	                        0	         42	           42	           0	                    0	                                335	                               335	                                0	                                         0	                                368	                               368	                                0	                                         0	
Release/script/unlimited natural resources.txt                                	               6	                6	               0	                        0	         45	           45	           0	                    0	                                358	                               358	                                0	                                         0	                                393	                               393	                                0	                                         0	
Release/text/guide/EXTERN.txt                                                 	               7	                7	               0	                        0	         54	           54	           0	                    0	                                291	                               291	                                0	                                         0	                                338	                               338	                                0	                                         0	
Release/text/guide/FARMCROP.txt                                               	               9	                9	               0	                        0	         62	           62	           0	                    0	                                311	                               311	                                0	                                         0	                                364	                               364	                                0	                                         0	
Release/text/guide/FARMLIVE.txt                                               	               3	                3	               0	                        0	         11	           11	           0	                    0	                                 67	                                67	                                0	                                         0	                                 75	                                75	                                0	                                         0	
Release/text/guide/FARMPROC.txt                                               	              13	               13	               0	                        0	        167	          167	           0	                    0	                                835	                               835	                                0	                                         0	                                987	                               987	                                0	                                         0	
Release/text/guide/FOREST.txt                                                 	              10	               10	               0	                        0	         73	           73	           0	                    0	                                353	                               353	                                0	                                         0	                                416	                               416	                                0	                                         0	
Release/text/guide/INV.txt                                                    	               5	                5	               0	                        0	         25	           25	           0	                    0	                                133	                               133	                                0	                                         0	                                153	                               153	                                0	                                         0	
Release/text/guide/LABEL.txt                                                  	               7	                7	               0	                        0	        121	          121	           0	                    0	                                633	                               633	                                0	                                         0	                                747	                               747	                                0	                                         0	
Release/text/guide/MFT.txt                                                    	              19	               19	               0	                        0	        197	          197	           0	                    0	                                987	                               987	                                0	                                         0	                               1165	                              1165	                                0	                                         0	
Release/text/guide/MINE.txt                                                   	              10	               10	               0	                        0	         73	           73	           0	                    0	                                352	                               352	                                0	                                         0	                                415	                               415	                                0	                                         0	
Release/text/guide/OIL.txt                                                    	              10	               10	               0	                        0	         74	           74	           0	                    0	                                359	                               359	                                0	                                         0	                                423	                               423	                                0	                                         0	
Release/text/guide/PROJCODE.txt                                               	               5	                5	               0	                        0	         20	           20	           0	                    0	                                106	                               106	                                0	                                         0	                                121	                               121	                                0	                                         0	
Release/text/guide/PROJECT.txt                                                	              10	               10	               0	                        0	         44	           44	           0	                    0	                                244	                               244	                                0	                                         0	                                278	                               278	                                0	                                         0	
Release/text/guide/PUR.txt                                                    	              19	               19	               0	                        0	        207	          207	           0	                    0	                                955	                               955	                                0	                                         0	                               1142	                              1142	                                0	                                         0	
Release/text/guide/RADRD.txt                                                  	               7	                7	               0	                        0	         31	           31	           0	                    0	                                184	                               184	                                0	                                         0	                                208	                               208	                                0	                                         0	
Release/text/guide/RD.txt                                                     	               7	                7	               0	                        0	         31	           31	           0	                    0	                                184	                               184	                                0	                                         0	                                208	                               208	                                0	                                         0	
Release/text/guide/SALE.txt                                                   	              17	               17	               0	                        0	        180	          180	           0	                    0	                                846	                               846	                                0	                                         0	                               1008	                              1008	                                0	                                         0	
Release/text/guide/TECH.txt                                                   	               7	                7	               0	                        0	         30	           30	           0	                    0	                                184	                               184	                                0	                                         0	                                207	                               207	                                0	                                         0	
Release/text/guide/TECHCODE.txt                                               	               7	                7	               0	                        0	         28	           28	           0	                    0	                                166	                               166	                                0	                                         0	                                187	                               187	                                0	                                         0	
Release/text/guide/WAREINV.txt                                                	               5	                5	               0	                        0	         28	           28	           0	                    0	                                150	                               150	                                0	                                         0	                                173	                               173	                                0	                                         0	
Release/text/guide/WAREPUR.TXT                                                	              16	               16	               0	                        0	        168	          168	           0	                    0	                                780	                               780	                                0	                                         0	                                931	                               931	                                0	                                         0	
Release/text/guide/WARESALE.txt                                               	              17	               17	               0	                        0	        180	          180	           0	                    0	                                857	                               857	                                0	                                         0	                               1019	                              1019	                                0	                                         0	
Release/text/tips/Auto_Adjust_Prices.txt                                      	               3	                3	               0	                        0	         64	           64	           0	                    0	                                344	                               344	                                0	                                         0	                                405	                               405	                                0	                                         0	
Release/text/tips/Game_Speed.txt                                              	              10	               10	               0	                        0	        139	          139	           0	                    0	                                701	                               701	                                0	                                         0	                                830	                               830	                                0	                                         0	
Release/text/tips/List_Box_Browsing_Keys.txt                                  	               4	                4	               0	                        0	         83	           83	           0	                    0	                                367	                               367	                                0	                                         0	                                445	                               445	                                0	                                         0	
Release/text/tips/Tips_List.txt                                               	               3	                3	               0	                        0	         13	           13	           0	                    0	                                117	                               117	                                0	                                         0	                                127	                               127	                                0	                                         0	
Release/translate/gm_help.txt                                                 	             493	              493	               1	                        1	       3150	         3150	           2	                    2	                              16709	                             16709	                               11	                                        11	                              19483	                             19483	                               12	                                        12	
Release/translate/help.txt                                                    	            3841	             3841	               1	                        1	      16903	        16903	          11	                   11	                              89146	                             89146	                               52	                                        52	                             103379	                            103379	                               62	                                        62	
Release/translate/t_basic.txt                                                 	              16	               16	               0	                        0	         60	           60	           0	                    0	                                338	                               338	                                0	                                         0	                                342	                               342	                                0	                                         0	
Release/translate/t_game.txt                                                  	            2404	             2404	               0	                        0	      13607	        13607	           0	                    0	                              81051	                             81051	                                0	                                         0	                              89036	                             89036	                                0	                                         0	
Release/tutorial/script/tutorial 1.txt                                        	             106	              106	               0	                        0	        458	          458	           0	                    0	                               3443	                              3443	                                0	                                         0	                               3772	                              3772	                                0	                                         0	
Release/tutorial/script/tutorial 2.txt                                        	             102	              102	               0	                        0	        443	          443	           0	                    0	                               3347	                              3347	                                0	                                         0	                               3664	                              3664	                                0	                                         0	
Release/tutorial/script/tutorial 3.txt                                        	              96	               96	               0	                        0	        446	          446	           0	                    0	                               3316	                              3316	                                0	                                         0	                               3641	                              3641	                                0	                                         0	
Release/tutorial/script/tutorial 4.txt                                        	              96	               96	               0	                        0	        456	          456	           0	                    0	                               3331	                              3331	                                0	                                         0	                               3667	                              3667	                                0	                                         0	
Release/tutorial/script/tutorial 5.txt                                        	              88	               88	               0	                        0	        427	          427	           0	                    0	                               3089	                              3089	                                0	                                         0	                               3404	                              3404	                                0	                                         0	
Release/tutorial/script/tutorial 6.txt                                        	              89	               89	               0	                        0	        469	          469	           0	                    0	                               3322	                              3322	                                0	                                         0	                               3676	                              3676	                                0	                                         0	
Release/tutorial/script/tutorial 7.txt                                        	              87	               87	               0	                        0	        434	          434	           0	                    0	                               3165	                              3165	                                0	                                         0	                               3486	                              3486	                                0	                                         0	
Release/tutorial/script/tutorial 8.txt                                        	              84	               84	               0	                        0	        455	          455	           0	                    0	                               3279	                              3279	                                0	                                         0	                               3623	                              3623	                                0	                                         0	
Release/tutorial/tut01.txt                                                    	             331	              331	               0	                        0	       1677	         1677	           0	                    0	                              11609	                             11609	                                0	                                         0	                              12860	                             12860	                                0	                                         0	
Release/tutorial/tut02.txt                                                    	             391	              391	               0	                        0	       2193	         2193	           0	                    0	                              15350	                             15350	                                0	                                         0	                              17050	                             17050	                                0	                                         0	
Release/tutorial/tut03.txt                                                    	             307	              307	               0	                        0	       1538	         1538	           0	                    0	                              11150	                             11150	                                0	                                         0	                              12318	                             12318	                                0	                                         0	
Release/tutorial/tut04.txt                                                    	             412	              412	               0	                        0	       2468	         2468	           0	                    0	                              17546	                             17546	                                0	                                         0	                              19494	                             19494	                                0	                                         0	
Release/tutorial/tut05.txt                                                    	             293	              293	               0	                        0	       1893	         1893	           0	                    0	                              12275	                             12275	                                0	                                         0	                              13792	                             13792	                                0	                                         0	
Release/tutorial/tut06.txt                                                    	             128	              128	               0	                        0	        567	          567	           0	                    0	                               4253	                              4253	                                0	                                         0	                               4661	                              4661	                                0	                                         0	
Release/tutorial/tut07.txt                                                    	             311	              311	               0	                        0	       1658	         1658	           0	                    0	                              11948	                             11948	                                0	                                         0	                              13222	                             13222	                                0	                                         0	
Release/tutorial/tut08.txt                                                    	             141	              141	               0	                        0	        894	          894	           0	                    0	                               6118	                              6118	                                0	                                         0	                               6840	                              6840	                                0	                                         0	
Release/wallpaper/readme.txt                                                  	              15	               15	              15	                       15	        122	          122	         122	                  122	                                693	                               693	                              693	                                       693	                                803	                               803	                              803	                                       803	
